{
    "rules": [
        {
            "replace": {
                "column": "Firstname"
            },
            "with": {
                "fill": "x"
            },
	    "applies_to": ["'nicolast'@'%'"]
        },
        {
            "replace": {
                "column": "Surname"
            },
            "with": {
                "fill": "x"
            },
            "applies_to": ["'nicolast'@'%'"]
        },
        {
            "replace": {
                "column": "AddressLine1"
            },
            "with": {
                "fill": "x"
            },
            "applies_to": ["'nicolast'@'%'"]

        },
        {
            "replace": {
                "column": "AddressLine2"
            },
            "with": {
                "fill": "x"
            },
            "applies_to": ["'nicolast'@'%'"]
        }
    ]
}
